{
  "sol" : {
    "planets" : {
      "planet-0636220d-bed4-414b-8337-e28f0fe4f1c5" : {
        "color" : "#ff8e70",
        "description" : "Mars is the fourth planet from the Sun and the second-smallest planet in the Solar System after Mercury. In English, Mars carries a name of the Roman god of war, and is often referred to as the \"Red Planet\" because the reddish iron oxide prevalent on its surface gives it a reddish appearance that is distinctive among the astronomical bodies visible to the naked eye. Mars is a terrestrial planet with a thin atmosphere, having surface features reminiscent both of the impact craters of the Moon and the valleys, deserts, and polar ice caps of Earth.",
        "diameter" : 6792,
        "distance_to_sun" : 227.9,
        "file" : {
          "preview" : "blob:http://localhost:3000/6ebbf597-3daa-49b1-8abe-561dcda4d6bf",
          "url" : "https://storage.googleapis.com/planetary-ffc29.appspot.com/mars.jpeg?GoogleAccessId=firebase-adminsdk-648d2%40planetary-ffc29.iam.gserviceaccount.com&Expires=16447017600&Signature=wsUl0zDquQCkRdVj%2FyTkQR5Wo3DM9Nm1XhYvtRYOKyYI8%2FPA4XjmY%2FxyfB%2BaNzga2Bbz%2BgQe7uENshXtHLed0lMv%2FST4JCf%2BcdYKKggIAgimXwXWj8po77NNO0LG%2BTyYB0wggA%2F0Qpbp3xRGZAXelKJfhQJFISVMBktm3wuOyq9TkwcuTUYN6F2jG%2BToLoAKyEA%2FPwmwRri7tfF37k0SzX4IX0%2B2%2BRle5TFtUPqgKhtSN1mvFyzvSgMy8%2BCHA1lsXCRj5gJe6S%2FdroPxVTWluvepo%2BE1JQo2QOAuc9gPh9zCVr%2FklMAyagk4AQgDXeQxe1rFx5cYaQ8qHjGynyCBRg%3D%3D"
        },
        "id" : "planet-0636220d-bed4-414b-8337-e28f0fe4f1c5",
        "name" : "Mars",
        "orbital_period" : "687.00",
        "orbits" : "Sun",
        "timestamp" : 1528853349061,
        "type" : "planet"
      },
      "planet-2830f6c6-d563-49f5-832b-6c774f94ea75" : {
        "color" : "#d1cbc3",
        "description" : "Pluto is a dwarf planet in the Kuiper belt, a ring of bodies beyond Neptune. It was the first Kuiper belt object to be discovered.",
        "diameter" : 2370,
        "distance_to_sun" : 5906.4,
        "file" : {
          "preview" : "blob:http://localhost:3000/eb91efdf-4d32-443c-8e71-9129c1eb89d0",
          "url" : "https://storage.googleapis.com/planetary-ffc29.appspot.com/pluto.jpeg?GoogleAccessId=firebase-adminsdk-648d2%40planetary-ffc29.iam.gserviceaccount.com&Expires=16447017600&Signature=m7X2KTGHMMDX2jxZJd%2BF4Eed0gSLg7dInxiNldcCjuiXhxAPmkr%2BHkvkMIydHDR2knHyaVC3v%2FNViQJ2gi7wueU%2F6%2BNi5xz8arQLCdcmAGi97m1mIe4DG7bbvBp3vw17BIMAt1dv8WQaymKnF71Xsb2Anw9p1el9tFBHJ%2F4V0jqEj%2FIhGE1naOv2kNTrx71Ne2XbEmqJbr5zQLNyZMopAtDCLGFun7gn9gfoyNWhff8ZOlbiCKdfVc9lkJlSV%2FfYJH6x%2F5VGKIeslm%2FRsNimbUab5D%2BJaCsZct1bZ7%2F2qKReu%2FTuJSDVClksoGX0GcH5VnKBSyQkaXm2Co15eTYKQA%3D%3D"
        },
        "id" : "planet-2830f6c6-d563-49f5-832b-6c774f94ea75",
        "name" : "Pluto",
        "orbital_period" : "90560.00",
        "orbits" : "Sun",
        "timestamp" : 1539011902211,
        "type" : "planet"
      },
      "planet-7833f646-56f9-4ea5-8e91-e8a18657039b" : {
        "color" : "#5166f8",
        "description" : "Neptune is the eighth and farthest known planet from the Sun in the Solar System. In the Solar System, it is the fourth-largest planet by diameter, the third-most-massive planet, and the densest giant planet. Neptune is 17 times the mass of Earth and is slightly more massive than its near-twin Uranus, which is 15 times the mass of Earth and slightly larger than Neptune. Neptune orbits the Sun once every 164.8 years at an average distance of 30.1 AU (4.5 billion km). It is named after the Roman god of the sea and has the astronomical symbol ♆, a stylised version of the god Neptune's trident.",
        "diameter" : 49528,
        "distance_to_sun" : 4495.1,
        "file" : {
          "preview" : "blob:http://localhost:3000/1041cf94-2b57-4ca3-af55-113a3b34b929",
          "url" : "https://storage.googleapis.com/planetary-ffc29.appspot.com/Neptune_Full.jpg?GoogleAccessId=firebase-adminsdk-648d2%40planetary-ffc29.iam.gserviceaccount.com&Expires=16447017600&Signature=R7p9QUV5jNsx6WAljE6GsDCzPT2sWFJRIwFWTmfTHC0hKyYf8In0CZciw%2BfUz6fcCBg2%2FRYc%2F5UcpKv4%2BKASAVMYzh3faWDKbNoZce46gHrx3ZRUejIbT2hc1bcqok1AqT7dhhDRVIF3jRKLLz3wXQL6vI79eK6j5Ei%2FT04wRhOn%2Fmq7ZXDRDS54l%2Bi73vSCilg9uHjdiXLp%2Ftv8eaiRmJSl%2FYGC5TOSlh4V9Dogw7VhXiK2caudUMyN4Df7ccr1TTQ0iYwiUbsena%2BHbOgpJKI3q%2BDZMrvBgwSV9ig7Ldz2clm4H4%2FnTxoWCipfuejlluK0SoH8HXTVnSsS3l4m2Q%3D%3D"
        },
        "id" : "planet-7833f646-56f9-4ea5-8e91-e8a18657039b",
        "name" : "Neptune",
        "orbital_period" : "598000.00",
        "orbits" : "Sun",
        "timestamp" : 1549003977340,
        "type" : "planet"
      },
      "planet-8559a541-0cb6-4592-a795-355089b96695" : {
        "color" : "#2b94df",
        "description" : "Earth is the third planet from the Sun and the only astronomical object known to harbor life. According to radiometric dating and other sources of evidence, Earth formed over 4.5 billion years ago. Earth's gravity interacts with other objects in space, especially the Sun and the Moon, Earth's only natural satellite. Earth revolves around the Sun in 365.26 days, a period known as an Earth year. During this time, Earth rotates about its axis about 366.26 times.",
        "diameter" : 12756,
        "distance_to_sun" : 149.6,
        "file" : {
          "preview" : "blob:http://localhost:3000/59d6d8d8-fe62-464a-9a37-86a20e0e1520",
          "url" : "https://storage.googleapis.com/planetary-ffc29.appspot.com/terra_globe0047.jpg?GoogleAccessId=firebase-adminsdk-648d2%40planetary-ffc29.iam.gserviceaccount.com&Expires=16447017600&Signature=KzCTHMlwhLE%2FR62eQpobEGzoznYsKbttip7wO2AmRdj2oB%2BEPN%2BGo0uuXRaJfRLlu3qtSfWH1PwRxAOulYG9nda%2Bn176WMSbX7Gh9gXu5G5q2uSKNbjrwpakYC%2Fu3NpzaUGgOtbSaFvOsWeCMhFWOtIMjq0X1kmwLch2jd5nGTx%2BnwBIXoNcXz%2F%2F0slM%2BB43yklzZwc6sXIu9QmZum0IObdvzK4dWhoIBf0WVoWaKw%2B54IfJ59t6V0he4z%2BbOuciUzjDfvaXgOdKxHMNbDhAaX8beueonPSY38nfW%2BRQdDKXwu%2B%2BXOw8KhqiduVgAU%2BwfMLe9wqaww7zP%2FzEP3Y8EA%3D%3D"
        },
        "id" : "planet-8559a541-0cb6-4592-a795-355089b96695",
        "name" : "Earth",
        "orbital_period" : "365.20",
        "orbits" : "Sun",
        "timestamp" : 1528852609990,
        "type" : "planet"
      },
      "planet-8d65c992-db8b-4858-a4ee-b1889b425232" : {
        "color" : "#b7a176",
        "description" : "Saturn is the sixth planet from the Sun and the second-largest in the Solar System, after Jupiter. It is a gas giant with an average diameter about nine times that of Earth. It has only one-eighth the average density of Earth, but with its larger volume Saturn is over 95 times more massive.",
        "diameter" : 120536,
        "distance_to_sun" : 1433.5,
        "file" : {
          "preview" : "blob:http://localhost:3000/56154050-b7fa-4984-b3e7-e06ef6dbf2de",
          "url" : "https://storage.googleapis.com/planetary-ffc29.appspot.com/1200px-Saturn_during_Equinox.jpg?GoogleAccessId=firebase-adminsdk-648d2%40planetary-ffc29.iam.gserviceaccount.com&Expires=16447017600&Signature=Z1i94%2FfIDQQWaTl9pqnsBHGFrNLWRKUdVavPsXba23VWst1fTxjlCO3BXUrDW5327%2FGVJUJQBs%2BOvXv38Rk404z6fxPZhMpWGCidOr4n05bJiJz8Bpv3CtnJwHIcSbpfF1Hg5oxjnSasAjWNWyFAIItzUi36iSDdp8ep2irsxFg6XIT8ui64EXph5Y3jt7RuB6tTo7VZTI5Uh0nfEf9QNN%2FB259m1ygxoYgZegizLmvOFUCyX7IFRcI2t6VfizCty1tPNF2Md0xPsjh33iOY5O4pI9DxACSvuWhJ2Yefusho2fq%2BugJxGOroGXX4l6NQ2K12rjstVl5kVyhycs0pUg%3D%3D"
        },
        "id" : "planet-8d65c992-db8b-4858-a4ee-b1889b425232",
        "name" : "Saturn",
        "orbital_period" : "10747.00",
        "orbits" : "Sun",
        "timestamp" : 1518856357142,
        "type" : "planet"
      },
      "planet-b57f6799-dd05-4972-91b6-8317c4e742fe" : {
        "color" : "#848182",
        "description" : "Mercury is the smallest and innermost planet in the Solar System. Its orbital period around the Sun of 87.97 days is the shortest of all the planets in the Solar System. It is named after the Roman deity Mercury, the messenger of the gods.",
        "diameter" : 2439,
        "distance_to_sun" : 57.9,
        "file" : {
          "preview" : "blob:http://localhost:3000/36b2aa85-6b72-4e56-990b-a852bf496e1a",
          "url" : "https://storage.googleapis.com/planetary-ffc29.appspot.com/225px-Mercury_in_color_-_Prockter07-edit1.jpg?GoogleAccessId=firebase-adminsdk-648d2%40planetary-ffc29.iam.gserviceaccount.com&Expires=16447017600&Signature=d0rCyVFOkKDQD%2F06KhdprqCqTxW3z0FNHegDOqhzUwMGbYLHZOjRwu7OqMQqgsgWnAOw7tMGqj%2BE0QYpoped%2BN6GuUz8rRmXv%2BF7Hr38hk10JuLbIOyF0xchD7n9TsWu4VI4HfXGiyZMXqqdpKQEumtCt8KQmMIntwgMgjMQfMD5OoagsXlgRHbTZGFo%2F4J1aS3NWP3sExTrdo8XSIBmADWu%2F0vwTr%2FURI9wOSrgfWE9iz%2BJ6yiccU6l1OenYQSObq5e5pYjzWyPhbxBivBL3VA1hidE07ZBXTkzwaP1147YsVvP1nLXAbalM3xUDjpHSpWpfEN42JlTC4c5rOf%2BKw%3D%3D"
        },
        "id" : "planet-b57f6799-dd05-4972-91b6-8317c4e742fe",
        "name" : "Mercury",
        "orbital_period" : "88.00",
        "orbits" : "Sun",
        "timestamp" : 1518853165548,
        "type" : "planet"
      },
      "planet-c5d8ea77-2973-4596-a58b-079ae222946b" : {
        "color" : "#b0a288",
        "description" : "Jupiter is the fifth planet from the Sun and the largest in the Solar System. It is a giant planet with a mass one-thousandth that of the Sun, but two-and-a-half times that of all the other planets in the Solar System combined. Jupiter and Saturn are gas giants; the other two giant planets, Uranus and Neptune, are ice giants. Jupiter has been known to astronomers since antiquity. The Romans named it after their god Jupiter. When viewed from Earth, Jupiter can reach an apparent magnitude of −2.94, bright enough for its reflected light to cast shadows, and making it on average the third-brightest natural object in the night sky after the Moon and Venus.",
        "diameter" : 142984,
        "distance_to_sun" : 778.6,
        "file" : {
          "preview" : "blob:http://localhost:3000/edb33ba5-43bc-4d15-a519-ab6ecbefa003",
          "url" : "https://storage.googleapis.com/planetary-ffc29.appspot.com/330px-Jupiter_and_its_shrunken_Great_Red_Spot.jpg?GoogleAccessId=firebase-adminsdk-648d2%40planetary-ffc29.iam.gserviceaccount.com&Expires=16447017600&Signature=J75Y5bzLNehmUPg%2BBvdXbiAq6xmgpdsX2iep%2F3tGqt0r1nZQWETVbjOHyQ9n1ZB5iIkaPaCmKekAqRfvpKn0pnjEUzjQMlJ7Yhn8V%2F1DNGuYvHRNvE5UQUdz2wv3VMlSJ%2FRIX6Wq3p3qxBKUSy2JUFY8HUU9EXpDxwdncEzPQuk999HLEF0dGFsw8%2F%2BdeWVUoOC0PhPy7OhuwgavTd%2Bzxx4WNjqTpKmjgMe5ilXrcub5LuFubk%2F9NqTssGR5tcVQwpHGfUmxOyp5oV9DH1TLwG1wW8F1noBvjOVEgiU6M%2F%2FpYBSj6f9O%2BmhQnT2cJksxiH%2BuLMx7eS5Lu2bRra6gJw%3D%3D"
        },
        "id" : "planet-c5d8ea77-2973-4596-a58b-079ae222946b",
        "name" : "Jupiter",
        "orbital_period" : "4331.00",
        "orbits" : "Sun",
        "timestamp" : 1528855104112,
        "type" : "planet"
      },
      "planet-ce01d9a7-a3e8-426e-a55c-dc495213f267" : {
        "color" : "#cbc8bf",
        "description" : "Venus is the second planet from the Sun, orbiting it every 224.7 Earth days. It has the longest rotation period (243 days) of any planet in the Solar System and rotates in the opposite direction to most other planets (meaning the Sun would rise in the west and set in the east). It does not have any natural satellites. It is named after the Roman goddess of love and beauty. It is the second-brightest natural object in the night sky after the Moon, reaching an apparent magnitude of −4.6 – bright enough to cast shadows at night and, rarely, visible to the naked eye in broad daylight. Orbiting within Earth's orbit, Venus is an inferior planet and never appears to venture far from the Sun; its maximum angular distance from the Sun (elongation) is 47.8°.",
        "diameter" : 12104,
        "distance_to_sun" : 108.2,
        "file" : {
          "preview" : "blob:http://localhost:3000/54512c66-1316-41b3-928a-0a4ccfcd663f",
          "url" : "https://storage.googleapis.com/planetary-ffc29.appspot.com/venus.jpeg?GoogleAccessId=firebase-adminsdk-648d2%40planetary-ffc29.iam.gserviceaccount.com&Expires=16447017600&Signature=AG2EyyzNrOm%2B1CPnQXfN0JRncel6XmFJwzh6FpwdO5mXFd%2Bmms0aIbnYqp13Ku8QaR3tK30St2AQu3E%2FbkBU0K6EFUgrNDFlnaM0nocjqFmU%2Bu3BcLVKm0jOS9E6QuETfql3ej7JB%2BnojAkKgUSKjyM6vxEVRJjMa8nssLOYp7oC0lyLT6cL7RIow%2FYdUVYCFBLKjmgAC9UfbpFmjm40ePOW7LQhuAHdnaxhbg3II1I%2BfQ7kvDntY6uGm77jfbzM%2ByWQ3ulZnqf45E%2BQfiXY2c5qfrX%2FjImeEUwzioIQropK3nARZAXwCisPhnQbQkHWBAXhv7yHhYsSurrSS%2B%2FgLw%3D%3D"
        },
        "id" : "planet-ce01d9a7-a3e8-426e-a55c-dc495213f267",
        "name" : "Venus",
        "orbital_period" : "224.70",
        "orbits" : "Sun",
        "timestamp" : 1548852991945,
        "type" : "planet"
      },
      "planet-f4b49694-6774-42a3-8502-a0229ff41d00" : {
        "color" : "#caedef",
        "description" : "Uranus is the seventh planet from the Sun. It has the third-largest planetary diameter and fourth-largest planetary mass in the Solar System. Uranus is similar in composition to Neptune, and both have different bulk chemical composition from that of the larger gas giants Jupiter and Saturn.",
        "diameter" : 51118,
        "distance_to_sun" : 2872.5,
        "file" : {
          "preview" : "blob:http://localhost:3000/7aa08c45-a22e-480c-9be7-968c537c5de6",
          "url" : "https://storage.googleapis.com/planetary-ffc29.appspot.com/Uranus2.jpg?GoogleAccessId=firebase-adminsdk-648d2%40planetary-ffc29.iam.gserviceaccount.com&Expires=16447017600&Signature=ykh3t%2BiPE5u%2FbzRhEIWGkX32fON7EDKh2vkmkYip%2FFrMRu5vVlfBfAOrJNIm8Y%2BPLgSD5bwUVxkdx1TJqFQjgsBB6TXjsyto9Gf55AiY9HurPCRWC3X1%2BMtiTdmPYQI55LZ3JXsBzgyKgiRJoWj6fIY%2FLufB8Uzxc6pl31Wfqh0m8DMWXwlp6X25BrSldDtSV2wLP18C%2Fe6JHxMi3QvUEsYgITnCCRE0nOjTPSzamTHr0Z6Ls4n6ykr4jwRGR61GmHP%2FtOHvKa1681g%2F0HWwMbqtYM%2FaTlW77933lO0yT8l10ETygRcIqPa98t0we01%2BYBX6FjUu%2FMGNCzP86UAtFQ%3D%3D"
        },
        "id" : "planet-f4b49694-6774-42a3-8502-a0229ff41d00",
        "name" : "Uranus",
        "orbital_period" : "30589.00",
        "orbits" : "Sun",
        "timestamp" : 1558865081481,
        "type" : "planet"
      }
    }
  }
}
